Aprendizaje Supervisado
…
[[5]]
<Analysis/Assess/Total>
<6905/1726/8631>

Necesitamos un conjunto de posibles valores de parámetros para probar el árbol de decisión.

Código

param_grid <- grid_regular(tree_depth(), min_n(), levels = 5)
param_grid

# A tibble: 25 x 2
   tree_depth min_n
        <int> <int>
 1          1     2
 2          4     2
 3          8     2
 4         11     2
 5         15     2
 6          1    11
 7          4    11
 8          8    11
 9         11    11
10         15    11
# ... with 15 more rows
…
tune_DF <- tune_grid(
  model_TREE,
  fraud~ .,
  resamples = fold_df, 
  grid = param_grid, 
  metrics = metric_set(accuracy, sensitivity, precision)
)

Las métricas provienen del rendimiento de la validación cruzada a través de los diferentes valores de los parámetros.

Código

collect_metrics(tune_DF)

# A tibble: 75 x 8
   tree_depth min_n .metric     .estimator  mean     n  std_err .config         
        <int> <int> <chr>       <chr>      <dbl> <int>    <dbl> <chr>           
 1          1     2 accuracy    binary     0.992     5 0.000944 Preprocessor1_M~
 2          1     2 precision   binary     0.811     5 0.0328   Preprocessor1_M~
 3          1     2 sensitivity binary     0.570     5 0.0283   Preprocessor1_M~
 4          4     2 accuracy    binary     0.992     5 0.00102  Preprocessor1_M~
 5          4     2 precision   binary     0.875     5 0.0377   Preprocessor1_M~
 6          4     2 sensitivity binary     0.579     5 0.0277   Preprocessor1_M~
 7          8     2 accuracy    binary     0.992     5 0.00111  Preprocessor1_M~
 8          8     2 precision   binary     0.846     5 0.0418   Preprocessor1_M~
 9          8     2 sensitivity binary     0.617     5 0.0351   Preprocessor1_M~
10         11     2 accuracy    binary     0.992     5 0.00111  Preprocessor1_M~
# ... with 65 more rows
…
