Desbalanceo de datos
…
Código

set.seed(1234)
fold_df <- vfold_cv(df_train, v=5, strata=fraud)

Necesitamos un conjunto de posibles valores de los hiparámetros

Código

rf_grid <- grid_regular(trees(), 
             min_n(),
             levels = 5)
rf_grid

# A tibble: 25 x 2
   trees min_n
   <int> <int>
 1     1     2
 2   500     2
 3  1000     2
 4  1500     2
 5  2000     2
 6     1    11
 7   500    11
 8  1000    11
 9  1500    11
10  2000    11
# ... with 15 more rows
…
tune_rf <- tune_grid(
  model_rf,
  fraud~ .,
  resamples = fold_df, 
  grid = rf_grid, 
  metrics = metric_set(accuracy, sensitivity, precision)
)

Las métricas provienen del rendimiento de la validación cruzada a través de los diferentes valores de los parámetros.

Código

collect_metrics(tune_rf)

# A tibble: 75 x 8
   trees min_n .metric     .estimator  mean     n  std_err .config              
   <int> <int> <chr>       <chr>      <dbl> <int>    <dbl> <chr>                
 1     1     2 accuracy    binary     0.988     5 0.00140  Preprocessor1_Model01
 2     1     2 precision   binary     0.627     5 0.0414   Preprocessor1_Model01
 3     1     2 sensitivity binary     0.454     5 0.0665   Preprocessor1_Model01
 4   500     2 accuracy    binary     0.993     5 0.000541 Preprocessor1_Model02
 5   500     2 precision   binary     0.899     5 0.0299   Preprocessor1_Model02
 6   500     2 sensitivity binary     0.567     5 0.0430   Preprocessor1_Model02
 7  1000     2 accuracy    binary     0.993     5 0.000472 Preprocessor1_Model03
 8  1000     2 precision   binary     0.914     5 0.0251   Preprocessor1_Model03
 9  1000     2 sensitivity binary     0.572     5 0.0429   Preprocessor1_Model03
10  1500     2 accuracy    binary     0.993     5 0.000608 Preprocessor1_Model04
# ... with 65 more rows
…
tune_rf_over <- tune_grid(
  model_rf,
  fraud~ .,
  resamples = fold_over, 
  grid = rf_grid, 
  metrics = metric_set(accuracy, sensitivity, precision)
)

Las métricas provienen del rendimiento de la validación cruzada a través de los diferentes valores de los parámetros.

Código

collect_metrics(tune_rf_over)

# A tibble: 75 x 8
   trees min_n .metric     .estimator  mean     n  std_err .config              
   <int> <int> <chr>       <chr>      <dbl> <int>    <dbl> <chr>                
 1     1     2 accuracy    binary     0.990     5 0.00110  Preprocessor1_Model01
 2     1     2 precision   binary     0.774     5 0.0567   Preprocessor1_Model01
 3     1     2 sensitivity binary     0.519     5 0.0777   Preprocessor1_Model01
 4   500     2 accuracy    binary     0.993     5 0.000582 Preprocessor1_Model02
 5   500     2 precision   binary     0.897     5 0.0326   Preprocessor1_Model02
 6   500     2 sensitivity binary     0.578     5 0.0239   Preprocessor1_Model02
 7  1000     2 accuracy    binary     0.993     5 0.000577 Preprocessor1_Model03
 8  1000     2 precision   binary     0.897     5 0.0326   Preprocessor1_Model03
 9  1000     2 sensitivity binary     0.585     5 0.0185   Preprocessor1_Model03
10  1500     2 accuracy    binary     0.993     5 0.000577 Preprocessor1_Model04
# ... with 65 more rows
…
