Aprendizaje Supervisado
…
tune_DF <- tune_grid(
  model_RF,
  fraud~ .,
  resamples = fold_df, 
  grid = param_grid, 
  metrics = metric_set(accuracy, sensitivity, precision)
)

Las métricas provienen del rendimiento de la validación cruzada a través de los diferentes valores de los parámetros.

Código

collect_metrics(tune_DF)

# A tibble: 27 x 8
    mtry min_n .metric     .estimator  mean     n  std_err .config             
   <int> <int> <chr>       <chr>      <dbl> <int>    <dbl> <chr>               
 1    10     2 accuracy    binary     0.993     5 0.000591 Preprocessor1_Model1
 2    10     2 precision   binary     0.831     5 0.0417   Preprocessor1_Model1
 3    10     2 sensitivity binary     0.606     5 0.0344   Preprocessor1_Model1
 4    20     2 accuracy    binary     0.992     5 0.000706 Preprocessor1_Model2
 5    20     2 precision   binary     0.790     5 0.0429   Preprocessor1_Model2
 6    20     2 sensitivity binary     0.644     5 0.0458   Preprocessor1_Model2
 7    30     2 accuracy    binary     0.992     5 0.00103  Preprocessor1_Model3
 8    30     2 precision   binary     0.794     5 0.0612   Preprocessor1_Model3
 9    30     2 sensitivity binary     0.632     5 0.0462   Preprocessor1_Model3
10    10     5 accuracy    binary     0.992     5 0.000586 Preprocessor1_Model4
# i 17 more rows
…
