Análisis de sentimientos
…
Código

library(LiblineaR)
svm_fit <- we_svm %>%
  fit(objects_training)

Código

# Predicciones en test
svm_predictions <- predict(svm_fit, objects_testing) %>%
  bind_cols(objects_testing)

svm_predictions

# A tibble: 1,453 x 3
   .pred_class feeling  news                                                    
   <fct>       <chr>    <chr>                                                   
 1 positive    positive With the new production plant the company would increas~
 2 positive    positive In the third quarter of 2010 , net sales increased by 5~
 3 neutral     positive HELSINKI ( AFX ) - Shares closed higher , led by Nokia ~
 4 neutral     positive Its board of directors will propose a dividend of EUR0 ~
 5 neutral     positive Lifetree was founded in 2000 , and its revenues have ri~
 6 neutral     positive MegaFon 's subscriber base increased 16.1 % in 2009 to ~
 7 positive    positive Operating profit for the three-month period increased f~
 8 positive    positive Viking Line 's cargo revenue increased by 5.4 % to EUR ~
 9 neutral     positive The fair value of the property portfolio doubled as a r~
10 positive    positive A Helsinki : ELIiV today reported EPS of EUR1 .13 for 2~
# i 1,443 more rows
…
